module modernc.org/sqlite

go 1.16

require (
	github.com/mattn/go-sqlite3 v1.14.10
	golang.org/x/sys v0.0.0-20211007075335-d3039528d8ac
	modernc.org/ccgo/v3 v3.15.11
	modernc.org/libc v1.14.3
	modernc.org/mathutil v1.4.1
	modernc.org/tcl v1.11.0
	modernc.org/z v1.3.0
)
